{
  "url": "https://github.com/NixOS/nixpkgs",
  "rev": "1e8fa431222b732c509f110c7baf559e97178dd6",
  "date": "2019-12-25T22:03:49+02:00",
  "sha256": "0gba9f90dmx9hp5jdb32g42hzlxwaa3yk4m4jnkyvz4giqcyq9dm",
  "fetchSubmodules": false
}
